{
	"commentStamp" : "TimM 7/9/2017 23:22",
	"super" : "BaselineOf",
	"category" : "BaselineOfLambda",
	"classinstvars" : [ ],
	"pools" : [ ],
	"classvars" : [ ],
	"instvars" : [ ],
	"name" : "BaselineOfLambda",
	"type" : "normal"
}