{
	"commentStamp" : "TimM 7/30/2017 21:48",
	"super" : "CommandLineHandler",
	"category" : "Lambda",
	"classinstvars" : [ ],
	"pools" : [ ],
	"classvars" : [ ],
	"instvars" : [ ],
	"name" : "ClassProcessorCommandLineHandler",
	"type" : "normal"
}