{
	"commentStamp" : "TimM 7/4/2017 16:36",
	"super" : "PharoFilesOpener",
	"category" : "LambdaRuntime",
	"classinstvars" : [ ],
	"pools" : [ ],
	"classvars" : [ ],
	"instvars" : [ ],
	"name" : "NoPharoFilesOpener",
	"type" : "normal"
}